letter	frequency	keywords
0	105	won,game,win,wkts,rajasthan,delhi,hooda,played,dd,royals,balls
1	118	won,mi,delhi,mumbai,toss,win,luck,game,time,elected,hooda,field
2	100	win,2232,excited,league,delhi,hooda,toss,won,field
3	81	daredevils,rr,mi,delhi,played,talent,win,hope,time,indians,hooda,luck
4	83	deepak,game,win,delhi,page,hooda,dd,rr,remaining
5	83	mobile,won,android,indian,download,like,mumbai,watch,hooda,win
6	62	NA
7	75	win,ov,wkts,rr,good,won,come,live
8	60	NA
9	70	NA
10	79	let,time,watch,indians,mumbai,ball,sehwag,mi,come
11	59	NA
12	61	NA
13	70	NA
14	89	hitting,viru,watch,like,play,watching,sehwag,awesome,start,vintage,paa
15	88	enjoy,digital,vintage,kumar,viru,stream,sehwag,official,runs
16	92	kxip,batting,punjab,form,viru,watch,virender,sehwag,seen,bat
17	75	bowlers,getting,win,vinay,vijay,viru,sehwag,bowling,kumar,bowler
18	83	kxip,ov,punjab,vijay,viru,sehwag,malinga,46,ovs
19	105	raced,game,34,batting,16,viru,sehwag,vintage,shewag
20	92	kixp,time,batting,viru,watch,virender,sehwag,mi,runs,wankhede
21	89	gone,maxwell,sehwag,outtt,played,comes,time,wicket,harbhajan,glenn,perfect
22	89	hai,gone,maxwell,sehwag,maxi,big,goes,wicket,good,mi
23	77	overs,xi,maxwell,punjab,wow,miller,wicket,good,like
24	47	NA
25	44	NA
26	39	NA
27	50	NA
28	48	NA
29	62	NA
30	57	NA
31	38	NA
32	61	NA
33	70	NA
34	75	watching,bailey,ovrs,punjab,overs,kxip,15,want,malinga,live
35	72	NA
36	71	NA
37	53	NA
38	58	NA
39	48	NA
40	49	NA
41	71	NA
42	64	NA
43	71	NA
44	87	178,target,2232,expect,league,george,bailey,177,good,zinda
45	58	NA
46	44	NA
47	54	NA
48	47	NA
49	65	NA
50	73	gets,sharma,sandeep,talented,just,rohit,wicket,start,come,way
51	55	NA
52	55	NA
53	31	NA
54	61	NA
55	56	NA
56	58	NA
57	107	johnson,finch,chance,1546,code,mitchell,wicket,bowled,mi,enter
58	100	bowling,prize,mumbai,maiden,wicket,enter,johnson,join,chance,1546,code,live
59	88	win,mi,bowling,sandeep,mumbai,17,2015,official,live,johnson
60	64	NA
61	81	25,mi,mumbai,indians,stumping,big,trouble,corey,chasing
62	79	win,mi,like,mumbai,corey,wicket,pollard,anderson
63	75	vs,time,dont,mumbai,lowest,johnny,pollard,mi,playing
64	71	NA
65	76	10,32,mumbai,play,overs,just,like,bowling,indians,playing
66	85	match,win,mi,score,overs,mumbai,test,10,32,trying,indians,save
67	58	NA
68	75	today,kxip,mi,mumbai,indians,overs,rayudu,matches,follow,johnson
69	75	worst,mi,digital,enjoy,mumbai,stream,11,partner,johnson
70	78	just,coaches,indians,overs,mumbai,kumble,ponting,stadium,think
71	93	need,mi,gets,mumbai,time,perishes,indians,just,miller,pollard,20,lost
72	78	kieron,mi,score,sachin,mumbai,time,ponting,pollard,stayed
73	69	NA
74	55	NA
75	61	NA
76	56	NA
77	87	firing,mi,batting,sardar,hitting,fight,singh,harbhajan,bhajji,sixes,drivers
78	91	batting,6th,sardar,anureet,highest,singh,harbhajan,bhajji,haha
79	101	fastest,50,mumbai,bhajji,singh,fifty,batsman,batsmen,batting,player,harbhajan,balls
80	130	fastest,finish,50,going,mumbai,bhajji,wtf,hell,hang,dreams,harbhajan,singh
81	114	need,win,mi,mumbai,played,bhajji,needed,30,fight,harbhajan,balls,runs
82	73	25,sardar,bhajji,singh,played,good,needed,partnership,run,harbhajan,100,balls
