there are 7861 items in vocab_frame
                 words
is                  is
fire              fire
.                    .
sixes            sixes
series          series
.                    .
sorry            sorry
ah                  ah
saffers        saffers
😏                    😏
proud            proud
whatta          whatta
hitting        hitting
😈😈😈😈              😈😈😈😈
.                    .
hey                hey
keep              keep
high              high
spirits        spirits
.                    .
switched      switched
television  television
watch            watch
#ipl              #ipl
just              just
get                get
glimpse        glimpse
:                    :
,                    ,
,                    ,
...                ...
this              this
tweet            tweet
is                  is
best              best
!                    !
crowd            crowd
not                not
noisy            noisy
enough          enough
keep              keep
u                    u
awake            awake
?                    ?
:p                  :p
"                    "
:                    :
left              left
stadium        stadium
.                    .
yawn              yawn
.                    .
"                    "
its                its
fabulous      fabulous
batting        batting
..,                ..,
he                  he
is                  is
fireeeee      fireeeee
......,        ......,

[7861 rows x 1 columns]
Top terms per cluster:

Cluster 0 Words: b'team', b'runs', b'bowling', b'wicket', b'come', b'watch',

Cluster 0 Tweets: 587254030000230400 : Correct ! Well-said ... RT, 587254034169331713 : still same old result ! loosing streak continues, 587254091107045377 : emotions end . high-fiving everyone pumped . head down really disappointed, 587254155057598465 : Why earth did lose ?. heartbroken, 587254191694876672 : Here comes ...., 587254283264995328 : First . Second .. now .. . What cracking innings, 587254294224576512 : Feel Power .... We Are 8|, 587254326868881408 : team needs come back soon ....!!! :( :( ...., 587254398457356289 : Such nicel composed team ! Such Young talents team ! Let's go KILL boys !, 587254405298331649 : Pakistani leading wicket taker . !, 587254448553996289 : Sorry ah saffers 😏 proud whatta hitting 😈😈😈😈 . hey keep high spirits ., 587254500425011200 : Got feel sad ! Can't believe that .., 587254517034418177 : you beauty, 587254527935414274 : Cameraman please check focus .. Cant see faces clearly .. stands back are more clear .., 587254577499471873 : Bring Game day, 587254700388429824 : Now According Yuvraj's father , day whole team will be penniless ., 587254702582075392 : Very well team effort you will not see major matches did fact deserved, 587254706969296896 : things auctions just cant change :((, 587254755010809856 : Fantasy turned !! worst day 😂😂😂 , , nair .. fucked .., 587254873848066048 : didn't not change fate loosing streak continues straight losses, 587254882647707648 : team south africans also chokes ! Thanks saving yesterday :P, 587254946296246272 : wanna watch continue doing wonders, 587254995726241792 : !!!! He needs justify !, 587255028722708482 : once again dilli ke going cause traffic jam when they play .. they should give walk other teams, 587255071152308224 : lost again . row ! calls dharna ... surely !, 587255144364036097 : Take Bow !! Tremendous performance !! What good lot young players are knocking door Team, 587255208540971008 : What opportunity missed . That missed run out cost us dearly ., 587255375134466048 : Fantastic last Bat . Hooda's Contributions bat lead steal Game Congrats, 587255386542964736 : won toss elected bowl first .., 587255438829170689 : you should slap yourself ! Hahahaha ! Wait 3hours more you ll slap second cheek well, 587255498711273473 : 😁 what Player :) hats 😁 this is @rajasthanroyals's 😁 well done boys ., 587255510824390656 : are bating first guess what #MI are going chase something c'on . c'on ., 587255519707967489 : chase yet again ., 587255558551404544 : Everybody is wearing same eh ?, 587255563043475456 : birth heart !, 587255684992929792 : is most unluckiest team history 😂, 587255699282898944 : won toss will bat first ...... Let's hope it will be encounter ..., 587255790676742144 : Countries/players competing . now same players playing team competing co-players ., 587255954808279041 : is seriously impressive cricketer ..., 587256075692277762 : fans would be really disappointed only there were ., 587256126577610754 : Come Bouce back hit it hard, 587256204621021185 : I really don't know Sharma's decision field is right not . Time will tell . go !, 587256360749768704 : Tried tried very bad luck, 587256400625012736 : kid used pick wicket street , run next street celebrating , take wicket there , run back ...., 587256420082454528 : won toss elected field, 587256455071272960 : Its has secret crush !, 587256466257522689 : Hate admit , so far easily much more entertaining . Close games , lots nice legspin . air .., 587256530195451904 : Well done, 587256533848698883 : How is managing tweet being part presentation ceremony ?, 587256550114242562 : won toss , opt field, 587256734848155649 : least have record name now . Like legendary undertaker , only Reverse :P counting, 587256814854545408 : has full talent, 587256931825229824 : Very very best luck mi, 587257152961560576 : Well Done Boss Superb Knock, 587257253134258176 : require runs balls remaining , -vs- Page …, 587257282037153792 : playing own game showing Why tell u most dangerous opening batsman world ...., 587257332188520448 : Welcome, 587257499851436032 : #MI wins toss elected bowl first, 587257537189154817 : what's new- guys have been running amok years !!, 587257550027915266 : ( balls ) help extend ' losing streak Follow action here -, 587257560681422849 : had dare - are they chokers ?, 587257572089954304 : have won toss will bowl first, 587257655887953924 : Get facts ready NOT discovered ! credit, 587257672455471105 : Lol ... lost again . row ! calls dharna ... surely !, 587257742840037376 : team needs such refreshing young lads .! Delight class .!, 587257834733092864 : Finding new talent is art , then is it ..., 587257922792493058 : " : memory ... - ", 587258265861427201 : Great game cricket . Result came last ball . True thriller, 587258266779918336 : masterpiece, 587259133562224640 : won wkts . ( ) . , , , ., 587259134807900162 : Well Tried We Still Love You Well Fought, 587259188964761602 : Hoping thrilling game tonight . Its !, 587259263598268416 : It's going be .. gonna get good treat ., 587259346536398849 : Good Choice ....!!, 587259535196233728 : using ... Watching thanks ! go !!, 587259561532268546 : heart goes out specially , who bowled heart out . You simply have love him ., 587259799307358209 : All best defeat, 587259836724817920 : have won toss elect bat ., 587260017423863808 : : , , , , , , , , , , ., 587260355635707905 : Come 🙌 please bowl them out 🙏, 587260453157351424 : Thank you bringing back favorite commentor . Love way he welcomes toss !, 587260461030117378 : have won toss elected field ., 587260485549961217 : Dumini captain ......... will pay price again .., 587260728949747712 : winning losing are habits you get ., 587260994147188738 : It's amazing how keep punching weight now then !, 587261022110613505 : Playing , -vs- Page …, 587261027525361664 : vs details , preview , predictions ,, 587261115911909376 : What is drinking ?, 587261219360260097 : Heart ' .. Good luck team :), 587261246509944833 : Supporting #KXIP ! Few minutes go :D, 587261343176073216 : Time, 587261374281093120 : ground ., 587261499707494401 : rocked support tigers Yellow ! Here r tweets, 587261529956945921 : Come on , let's go !, 587261666414346242 : You simply cannot dislike !! tonight it's .. !!, 587261833934872577 : common go it, 587261875974344704 : kept perfect record they dismissed :, 587262092949897216 : will capture game, 587262160264437760 : could do few more sponsors tops ., 587262375126032386 : Don't bowl short , ... you're much better that, 587262424216182784 : Laying here !! C'mon, 587262472379244544 : won wkts . : , , , . . ., 587262497629024256 : AGAIN Bullet TRAIN :), 587262509171638272 : Watch best ad, 587262715057598466 : give good challenge ?, 587262868879343616 : time , has mastered art shitting one comes even close him . Not even ,, 587263087020916736 : wasn't unlucky . games . They let game slip winning position ., 587263156533080064 : Who was girl crowd ?? Aww, 587263425463525378 : sake score ton, 587263723196166144 : strategists teams ..., 587263936501678082 : I don't know why is not taking new ball Bowling ..., 587264168887103488 : . : P , runs , ", 587264277548896256 : looks good touch crisp shots , ominous signs , he explodes , little can be done bowlers ., 587264518406942720 : bowling full length is just going go distance !, 587264532478701568 : Vintage is back !, 587264536522035202 : ' tyohaar ' thing ' extra innings ' dance-offs are trivialising intensity sport itself . opinion ., 587264545195888642 : Thanks i can watch, 587264643615170560 : Hard luck atleast ur fighting hard tym .., 587264733612347392 : start !!! will love it .. Keep going .., 587264785965715457 : is revolution Cricket ... best new talent, 587264821592113153 : longtime sehwag back maximum sixes party ...., 587264836137914368 : Why waste energy hitting long sixes When you can hit so accurate, 587264932103589890 : Cheering , gotta love crowd, 587264944485203968 : has started . Blasted ! . ., 587265001594945536 : is fire !!! Class act !, 587265009383669761 : view , should be given second go atleast tests , Just pure panache spinach artistry he brings table, 587265014265851905 : #difficult concentrate, 587265017394769920 : It is always has been treat watch . ., 587265038785863680 : Watch play cool nerves ., 587265192498630656 : Artistry it seems .. Now that's first, 587265264967880705 : strike <3 <3 <3 󾌧󾌧󾌧󾌧󾌬󾌬󾬖󾬖󾬕 ❤❤ 󾬓󾬕 destruction begin <3 — ..., 587265367526912001 : Watching could play eternity why couldnt #icccricketworldcup2015 !!!, 587265373067550721 : Frustrating commentary .. Time pit mute Button, 587265396564176898 : Enjoy LIVE , official digital stream partner !, 587265526176608256 : . knocking ball sides ground ! Racing start👌🏻pure brilliance !, 587265533738758147 : So yet so far ; phrase must have been coined ., 587265573001789441 : boundary boundary , overshadowing amazing who is still other end , just case we forgot, 587265613845803008 : Wicket is coming ., 587265639267565568 : . : P , runs ,, 587265640299307008 : is letting us know why V . never made huge impact international level , looks very limited bowler times, 587265695320121344 : must be feeling guy area jise naa batting milti naa bowling ., 587265720284618752 : won astro power ., 587265787666112513 : - ( ) Last * ( , , ) M * ( , , ), 587265803277352960 : Thats it Have advantage when start this . save, 587265808025268226 : You know whats more awesome hitting brutally ? It's hitting brutally bouncing afterwards ., 587265865898393600 : why is Telecast ?, 587265879726931968 : player i wanna see back team is most explosive batsman world ., 587265935691530240 : having fun :-(, 587266024623439873 : Umpire almost got hit, 587266048174358528 : He is throwing kitchen sink bowlers ., 587266049994727425 : crazy start ... is just killing it ... 😍😎, 587266100758364161 : showcasing effect ;), 587266102616428544 : Bounce him get him out, 587266196048756736 : balle balle balle, 587266232463699968 : uniform is bit too blingy !, 587266242890706944 : Delight watch batting .... has become fun day now, 587266277493891072 : I think died listening commentary matches, 587266398432333824 : : , Won , Lost , Tied , . FOLLOW send, 587266422771945472 : Watching bat listening commentary - Couldn't ask better stuff !, 587266508633542656 : Listening watching bat .. Realised yet again - they're damn ageless geniuses, 587266526744485888 : Vintage action . think is still waiting wings !, 587266594017046528 : realy its big, 587266736166084608 : strike .. big, 587266888360525824 : Test heroics , easy forget that is expert ., 587266891078479874 : ( ., 587266984804360192 : most successful domestic player is getting Ripped apart batsmen, 587267036046196736 : Double treat batting dancing, 587267114676916224 : couldn't get team bowling this ...., 587267159291625474 : Someone needs break partnership :-/, 587267266250547201 : looking good special innings . Here's hoping he goes on get big score we all have been waiting . ., 587267271271153664 : commentary box is equally as horrible playing Cricket ., 587267340208709632 : many many days same premises thanks ..., 587267573395259392 : Commentators hit - " is very good hooker " lol, 587267619511603201 : Wud be awesum see get beeeeggg score, 587267693029429248 : Imagine bowling line that includes , ! RIP ! Mom Dad world records !, 587267726126686209 : ( ) , ) , ) . has hit fours so far . concedes runs ., 587267788244262914 : ( Ovs ) * ( ) ( ) ..., 587267840832475137 : We need welcome back tonight, 587268014803918849 : This is more we know🙌🏽, 587268076292349952 : number successive matches have lost , equals Warriors ' record, 587268098895413249 : Yeahh finally saw speaking show !!! - , whatever .. - ., 587268100380200961 : set Trophy fire ..... Indictment skills quality first-class cricket ?, 587268139601174528 : up .. Yayyyyy ...., 587268271272898561 : * *, 587268288608014336 : Love u, 587268295113359361 : is fire ! It's treat watch you batting sir ., 587268330571988992 : Oh 😍😍 What treat watch !, 587268414453886976 : Watching old best is pure joy too :), 587268445185515520 : ( ) , ) , ) . has hit fours so far . concedes runs ., 587268533505122304 : decline ? Not yet, 587268549103771648 : team has become knight riders season, 587268624345202689 : What did had morning ??, 587268802511032321 : shewag fire ., 587268861180772352 : Vintage sehwag ..... thats what we wanted see very long time, 587268904264667137 : So far has kept covered .., 587268911713751041 : First should be give, 587268919334985729 : , -vs- Page, 587268935398993921 : you are playing superb . Keep playing that that can set big target . :D : *, 587268947860258816 : who called commentary yar ., 587268971885244417 : I hate Pepsi ad ! Always makes me hungry !, 587268985865011200 : Where are Haters ? Common Bark ?, 587268986724753409 : Last, 587269047386968065 : commentator calling batsman batter . What hell ., 587269086402314241 : Its always pleasure watching , almost trashing #MI . Come we want more, 587269149056897026 : is fire, 587269176256901122 : evening ; Vintage sehwag , Pretty :-p, 587269327151177731 : cricket was incomplete such innings ...... pajji ...., 587269355873800192 : We were used too watching toooo much , Can't really get it ever !, 587269363968782336 : Son- Dad what is Dot Ball ??? Dad- Don't Know son We Are #Sehwag's Fan !!! 😀😊😉😃😄, 587269418826121216 : is ! It's treat watch you batting sir ., 587269484840259585 : is fire going great, 587269506654797824 : get anywhere top , batsmen will have keep covering up very ordinary bowling unit !, 587269588150128640 : Nice see form is coming, 587269606848524288 : . : V M , runs ,, 587269646748819458 : super shot .!!, 587269737693847553 : can relax now gon very safe hands, 587269765581811712 : Veteran takes veteran ! have respite !, 587269908678975488 : Get !!!!, 587270029881827329 : Finally !! Dangerous out !!, 587270052778483712 : man watch out is, 587270158189662208 : is gone . strikes he picks up former team mate ., 587270208445788160 : , 587270305359376385 : will fail its Me Me Me saying . 😂😂😂, 587270459432968195 : Hav exm ! WELL I don't care is !!!!!!!!!!!!!!, 587270559764885504 : : " Seeing page saving team ? Don't worry " Serious ? I'm not worrying , I'm disgusted, 587270647165751296 : its day ...., 587270657714421760 : #bigshow joins party, 587270671392120832 : Biggg Man pitch !!!, 587270843685670913 : gone .... oh no wat is going here, 587271153632182273 : ' Well ' that's ' ' when mummmm !!! :p :D, 587271154164875264 : struggling again , needs decks asap ..., 587271297563893761 : ... wow ... boys back action ..., 587271306401423361 : I wish more players would have fun mix players opposing team games Would improve viewing pleasure, 587271367063547904 : diamissal .... :O .... #Hopes ...., 587271463691927553 : Vese I'm I'm happy he got out ..., 587271509707636736 : say " Pakistani " . When it come say " Hey fat Pakistani sing love story song shit film " ., 587271594118090753 : powerfully pulled . Keep going ., 587271612304465922 : Nice come back back, 587271703119597568 : ov . c b ) , top-edges slog , picks out deep mid-wicket ., 587271758362750977 : Wow .. prodigy ! Very well done boy ., 587272575140626432 : ^_^ : * Best luck :), 587272718665588737 : arrey yar , what is happening ? Come !!!, 587272925121679360 : Right now batsmen middle ., 587273192793858048 : , -vs- Page, 587273325220466688 : I now happend found mute button t.v remote , thanks siddhu's commentary ., 587273575830126593 : I watch can't help think they'll be part exhibition team, 587273797792727040 : .. we ppl enjoyed fullest ..., 587273839043723264 : = = is Lose They Entertainment Us !!, 587273867564941312 : keep smiling bad form . that's called sports man spirit, 587273944563978240 : Debut (Worth ) gets Impact player (Worth ), 587274000268595200 : watching, 587274142233182208 : : ( ) , * *, 587274401831227393 : : | Watch #LiveStreaming app, 587274583583170560 : opt bowl , leave out : have opted bowl …, 587274689652768768 : WICKET b ) [ 4s-6 ] , THATS OUT !! Caught !!, 587274949309497345 : OUT ! ( ) falls . Top edge finds fine leg . ( ) -, 587274973850533889 : Thanks . only I could watch bat ., 587275014858268672 : Focussing cheerleaders when they arent cheerleading ... stay classy cameramen ..., 587275168017334272 : #MI's spinners have done great job . Just them are back game . are now pressure ., 587275322254499840 : Looks there is fire pants lions . .... why hurry, 587275335437135873 : Its bail out !! . He'd do that smiles .., 587275410234220545 : strikes again gets, 587275648646823937 : Here comes shitty fan map . I'm damn sure won't support . what basis they show map ., 587275762647961600 : has put brakes initially may be ..., 587276466406080512 : come back, 587276497989148672 : ..... blast ..... pls do it ..., 587276909148512256 : " you should see him nets mate he looks fucking awful " ...... never heard anyone say that, 587277021195083777 : comeon stadium people cheer team .. Cheer ..., 587277102367559680 : Yes indeed ... We can say is playing not just checking rate ..., 587277199272644608 : nice hear grooming young indian players, 587277386380484608 : come we you, 587277552420388865 : Supporting kings .!!!!!, 587277694703796224 : :( while .. Spend time then Go big ! I'm fan Still supporting u ., 587278023344332800 : you can switch off TV watch pre planned fixed matches ., 587278058081554432 : Njoying artificial open air, 587278274427953152 : : ( ) , * *, 587278332334452736 : need give killer climax, 587278949962481665 : miss you ! !, 587279173955162112 : Spinners drying runs claiming wickets ., 587279409238773761 : roar crowd brings back so many memories . ., 587279444827508736 : is watching bat .. Cheers, 587279732640591873 : things will be going ' high ' here, 587279836588048385 : Come ! Leave problems !, 587279858893398016 : Have you ever seen TV ?? Watch , he's sitting dugout ., 587279874097721345 : will always bleed blue ! When they support #MI ! Let's go #paltan !, 587279947493851139 : It's now clearing boundary well, 587279993924820992 : sends full-toss flat six ! How muck will #KXIP score ? LIVE SCORE, 587280066033233920 : matches are already better cup !! What say ???, 587280346946740224 : Brilliant show captain still, 587280404710879232 : What exactly is happening ? RT pls, 587280405608275969 : There are only teams . Batting side side . I am supporter Batting side ., 587280528463663104 : tweet Got feature tv ...... :), 587280871264092162 : is playing is original, 587281258444488704 : , Does needs specialist captains form just keep out ?, 587281285585862656 : takes wickets gets out . He should be called, 587281632853299200 : Sometimes u don't have bowl good ball take wkt just did same, 587281829519958016 : Twist tale ... place, 587281876827504641 : have lost too many . last hope cross, 587281966199873536 : Soon will purchase earning last, 587282040774504449 : Steal game .... ., 587282116875915265 : : beat wickets , #Stars #flops, 587282280214831105 : That's length you bowl, 587282896152559616 : : ( ) , * , * ,, 587282916234768384 : good thing is that they are not droping catches !, 587283030353448961 : : ( Ovs ) , * , * ,, 587283036166721536 : crowd Tendulkar's feet <3, 587283619498057728 : has best cheerleaders worst . dancing skirts uuunn .. does not look good, 587283718760300544 : Now that reminds me old keep it up ... forget ;), 587283980141006848 : big is coming, 587283997945765888 : #MI fighting back, 587284021920432128 : seems lot difficult now .. Come ...., 587284251025903616 : Good cmback, 587284862136143872 : Too many runs conceded FIX UP, 587284906792726528 : . Nailed it . ! Bruh . him, 587284978464989184 : . : V , runs ,, 587285068491522048 : is watching opening ., 587285097855979522 : I'm huge fan .. He deserves . Well done son, 587285221965492224 : , -vs- Page, 587285529642733568 : Good bunch domestic international players .. tough team beat, 587285799646826496 : colony is taken be unauthorized 👆👆👆, 587286079562088450 : Why does doctor always order ?, 587286096393805825 : : ( Ovs ) , * , * ,, 587286619503230976 : is what is music industry . 😃, 587286655322624000 : Nice gng .... just mi's, 587286789552910339 : Finally 1st biundry last, 587286793340370944 : cricket , there should be powerplay life enjoy few years childhood again ., 587287023456661505 : Calmness always proves handy #KXIP ... still job be done ball, 587287081283493888 : is good he still needs justify sitting out, 587287346296401920 : finish . remains unbeaten * . LIVE SCORE, 587287453926473729 : smile is full moon ☺☺, 587287526190088192 : Target will have play well, 587287669362663424 : Great bowling effort restrict, 587287694511751170 : , 587287933872316416 : : ( Ovs ) , * , * ,, 587287949793828864 : This is Bailey's Ist - lifts, 587288005053915136 : bowls loose straight air drive, 587288262185746433 : Time Smile :) just banged had set good fighting total .. Thank you . Smile you :), 587288306196447232 : Go, 587288770459774976 : is Watching, 587288914609606657 : come kings .... kings best club world, 587288920225746944 : we want team asap . Don't judge talent he is next, 587288953339846657 : way are losing matches it would be wise say they should consult astrologer numerologist ., 587289000425074689 : s such nice bloke want him do we'll nevertheless, 587289069983367168 : . Even Zinta's dimples look dud Indrani's beautiful dimples ., 587289212275179522 : Extra innings #siddhu is unstoppable is not listening him rather watching screen .., 587289469725908992 : Good total not expected . Needed be more runs !!, 587289690404818944 : want you do same thing season .., 587289713381220353 : nice score kings nice score baeily#, 587289924014977024 : , , , has enough firepower batting chase down total easily, 587289990717145088 : Who is beauty sitting right ??, 587290056878137344 : He's not " England's " more . Hasn't been year . Hopefully won't be again !, 587290537977221121 : , 587290589944655873 : Feeling sad wicket loss ? Cheer up #moodadjustmenthours tomorrow !, 587290653677072384 : side side ... entertainment never stops, 587290902613241857 : Always Love WATCH Great sir ., 587291109841174529 : Come you people can do it ... 🙌, 587291162538479617 : is competitive score ; need flying start need early scalps esp openers ., 587291257434677249 : Back Nohit ..., 587291331296280576 : Foreign players have such influence now will bat even, 587291442541793280 : " Yeh Hai !!! " What bloody irritating song .. Why ?, 587291520568463360 : Captain bailey rocked . he gets form when team needed, 587291533667241985 : Keep Calm, 587291554068299776 : guy .. Had dress up just mins crease .. :P We still love you ! :), 587291578730881025 : is back form, 587291761044803584 : dad is hua ye yeda ? Ah we miss you Ro !, 587291766350422016 : i enjoy guys bowling what swing he's got great great bowler, 587291887855370240 : WICKET ! gives early wicket . trapped front . LIVE SCORE, 587291921548050433 : Now , its seems there is way :(, 587291936408543232 : when Gone , has Gone berserk , rocks ...... :), 587291986991783936 : talented golden duck .., 587292142176829442 : kind information , punter boys lost 1st wicket run, 587292217858887680 : Even Khan's driver would have scored more, 587292328622075904 : , 587292415993716737 : Rohit's wicket was very crucial . Lets hope revive ., 587292437824933890 : What perfect weekender !! are ahead there are reds !!, 587292553378197504 : , 587292768386486272 : Superb start luv u lot, 587292791484456960 : is handsome man, 587292806579761153 : " I don't care , I don't care , I don't ... Oh crap wtf ! ", 587292834899734530 : Want c winning can't c losing ..., 587293137749422081 : : credits , trusting ability, 587293179696689153 : ( ) M * R *, 587293378401796096 : Where was swing when was bowling ?, 587293563169480704 : becomes first world No . women& ;s doubles : tennis …, 587293589736202240 : Classy diverts credit team-mates, 587293721852424192 : watchin, 587294207112572930 : Ok .. So now I finally know I'm supporter season .., 587294251941171200 : Waiting : b . Will happen someday soon ., 587294323604992001 : gotta give good come back, 587294439074205697 : pitch should help it has bounce pace it's somewhat he owes score well, 587294581391147008 : is so often called " underrated " he has actually become completely overrated ., 587294679034699776 : Bounced out end ... rabbit headlights ..., 587294747003326465 : gone yeah babyyyy :-D, 587294822957879296 : Yayyyyy :( there goes wicket :), 587294919586287619 : Amazing experience watching favourite player , , . Thank u beautiful boundaries .. Awesome win, 587295122238255104 : excellent bowling attack tare back dressing room, 587295166723047424 : top, 587295439524864000 : Enjoy LIVE , official digital stream partner !, 587295513411616770 : RT !!, 587295976508895232 : Getting out ) is better getting out ), 587296025242513408 : Its 25+yrs when heart beat fastener came existence same can b felt |, 587296146072010752 : anureet superbbbbb bowling guyssss , desi bandey chaa aaj, 587296179559477248 : was second top wicke t-t aker got him base price auction ., 587296188862308352 : What great seem position ... nicely done ...., 587296389685587968 : losing , losing . What happened home advantage ?, 587296486171348992 : bit head ache right now ..., 587296626093371392 : Watching entertaining game is fun loving all Ads simultaneously is enthralling 👌, 587296710344318976 : Still wanna play Tare ?, 587296902313447424 : Damnnnn young guns firing Terrific stuff, 587296917660508160 : This is brilliant bowling coming bowlers who are leading front, 587297014389481473 : Wow ! you beauty ! amazing stuff this !, 587297018567090178 : thrashing is highlight day, 587297101979103233 : ball ... superb ..., 587297204760514560 : That goes third , yeh, 587297289405763584 : delivery ... what sound .. roar straight away . ., 587297336256114688 : thing proves is money can not buy everything :) pls RT you like this, 587297455710019584 : that is beautiful !, 587297477763543041 : Arey featuring as well #ComedyNightsWithKapil ... place escape him .. .., 587297513570304003 : is when celebrates Finch's wicket ., 587297513616625664 : Omg are fire !! days MI only haha ! seeing get excited lol !, 587297531328991233 : killing Blue too .., 587297607715807233 : That was lovely ball it was Sandeep's Anureet's wicket too - are hunting pack ., 587297658479321088 : good wicket taken jst smashed, 587297743904710656 : Looks brings luck team, 587297777769525248 : blown #, 587297831557275648 : down already ! Woww ! trouble ! Its upto maybe play big big knock now !, 587297833574862848 : go dhoom machao .... stay calm play well ... wishes u, 587297850469523457 : bowler !!! 👌, 587297934162538496 : You know it's when you hear sound timber, 587297970439073792 : down now . Where is ? needs boost, 587297993709129728 : is combo pack , great bowling, 587298021743833088 : Even will b bowling continues ... maja aa gaya .., 587298032229593088 : WICKET ! castles are spot bother . chasing LIVE SCORE, 587298114882514945 : seems pacers are bowling different ground pitch, 587298141264678912 : is smashing, 587298191185281024 : Its #RED ryt now ., 587298203420069888 : wicket maiden, 587298218632814592 : Great bowling youngsters you are too good also, 587298228854333440 : needs miracle men field, 587298266615689217 : Clearly looks better bowling team . is simply over-rated over-paid team, 587298527522324480 : follows Sharma's maiden , he took wicket too . ., 587298650553974784 : get miracle I'll have first wrong prediction, 587298673278738432 : LOL 3wickets Wt happd ROFL, 587298687690403840 : Best way stop ball swinging is slap couple boundary ropes ..., 587298717511716864 : , mouthing inanities break ..., 587298734419025921 : What bowling ... High quality .. Glad see ball beating bat, 587298784738054144 : zinta's dimples r best world 😋😋😍, 587298831139602432 : When Starts . other thing Stops instead bat ball !!, 587298864580972545 : is getting fucked, 587298884109672448 : Need big innings tonight, 587299038032044033 : superb bowling, 587299102007754753 : R playing looks bowling not, 587299173785022464 : Had lots hopes fav team .. 😞😞 ... still ... lets see ... :( :(, 587299316269772800 : Spread Strategic Time, 587299387975413760 : slowly strangling batting lineup wickets drying up runs ., 587299388650733568 : Raydu ... ... play it pro ... play it world cup .. hopes you, 587299641353338880 : excellent display fast seam swing balling uncapped Indian fast ballers , fast balling future is excellent !!!, 587299657081954305 : Interviewer : , who is fav actress ?? : Beep-basha, 587299745577701376 : Lucky stumping ..., 587299787713556480 : drops catch, 587299830021521410 : well done young .. Excellent spell, 587300018438168576 : sure !, 587300209731829760 : Yes ... down .. more, 587300325926678528 : wicket . Great bowling patel ., 587300450854117376 : looks exuberant she should be are doing proud ... brilliant performance, 587300532668256256 : We are really fucked now . Hoped as well could do better ., 587300587881934848 : Better poor performance :P, 587300604218716162 : itss okk ...... nw ull hve jsttt play best losing wickets !!!, 587300710485733376 : duck , , maybe can do sth, 587300841058512896 : Early Prediction . ( Particular Order ) Top : , , , . Bottom : ,, 587300868107583488 : Stumped ! ( ) outfoxed . ( ) ., 587300927620657152 : Bitches this is you , Deal it ., 587300976089939969 : Can we already give award most demented ad ?, 587301148186570754 : . : WICKET ! ( ) is out , b ,, 587301273403179009 : end 8th . :, 587301276511182848 : condoms is KXIP's sponsors ; given way innings is shaping up , it seems needs them more ., 587301545282244608 : is target . Will defend runs ? looks we can make it, 587301661942685696 : hai :), 587301719861698560 : still runs short follow :-P !!, 587301946236633088 : it's damn time sheron ... let them hear roar loud time ., 587301987944833024 : It would be miracle wins here, 587302084946460672 : , overrated , low talent , high pretension ! Would love see Shastri's face right now !! 😄😄, 587302143876444161 : Talent mgmt doesn't mean u buy domestic asses den buy leopard , tigress crocodile teach donkeys hw b awesome predators ., 587302147357827072 : Thank month i can manage sleep will leave office night shift .. Thank you, 587302313418563585 : Those faces stands ... 😂😂😂, 587302536211726337 : Beautifully bowling attack great cricket ., 587302699533762560 : I only have half eye this what are they doing ) ? Shit bust surely, 587302724078698497 : This is really sad ! You take time watch play they're not even trying !, 587302740046450688 : bowlers . What bowling spectacle . firing cylinders, 587302887690088448 : leaving ball !! Man , you should join test team tmmrw's Test, 587302892274454528 : I really doubt can get here .. its already hands . econ, 587303029382127616 : was second top wicke t-t aker got him base price auction ., 587303298635468802 : great bowling , deserved be team, 587303300300611585 : Strongest think tank weakest team .., 587303327056035841 : WATCH : Best Catch History . is it #Cricket history ?, 587303498590490624 : are clear favorite now game .. bowling tight, 587303621848510465 : bad condition wrong decision choose field first !, 587303625451409408 : Bullet Train is .. Wanna See , Its Live, 587303648406806528 : , relaying live have inarticulate expert . Regrettable they couldn't find, 587303812693626880 : balls pe chaie ??? Possible ??? FUCK OFF, 587303835581820928 : pacers have rattled . -, 587303838287290370 : Are even going get ?, 587303850404478977 : worst performance, 587304019225288706 : #Pakistani is watching #pakistan #player it . will not watch ty are taken ., 587304217305608193 : taking saying " hai " too seriously .. Treating them !, 587304298649780224 : What fuck #MI ?, 587304364114518016 : got Coaching Staff it looks they need bat now, 587304429495324672 : Hoping, 587304737948635137 : it's never is field, 587304897088856064 : " : team please play marbles , Favorite Game " ", 587305009789870082 : Send bat now now it's not up, 587305100122554369 : ... wasn't Australian pitch, 587305353089568768 : Looks too much now . Have give credit who have been brilliant bat ball, 587305705469648896 : Did they like swap pitch break ?, 587305756283826176 : . : R Dhawan , runs ,, 587305781789241345 : When will learn mistakes, 587305787082481664 : WICKET ! dismisses caught . down . LIVE SCORE, 587305893164875776 : toss decision caused problem, 587305964556001280 : thought this was tri-nation series, 587306107418386432 : . : WICKET ! ( ) is out , c Wriddhiman b ,, 587306128800776192 : Congrats only player cross digit now ., 587306138388971520 : Bad day still, 587306260510412801 : She was sun who disappeared caused night .... regrets i will find moon stars dawn ;), 587306261210726401 : run rate is slow , batting engine is stuck junction ., 587306263794421760 : was bowling few mins ago team made him bat too very early .. down !, 587306280307429378 : mowing down . Awesome swings ends .., 587306324607676416 : worst batting displays ... what fucking is happening ??, 587306336083251200 : Score board looks they r playing, 587306371441303552 : previous seasons Star Stubbed teams are surviving poorly season also ...., 587306407000588288 : Now only can save, 587306422989369345 : Rayudu's " comeback " was good it lasted last shot was not shot international batsmen !, 587306609203773440 : Are spectators yet present stadium ?? * why * * facepalm*, 587306713293787136 : What happen, 587306752678330369 : They drop team !!! still much Better keeper batsman .., 587306774346076160 : somebody called ..., 587307014382026752 : TIME retirement team ., 587307158359773184 : We are not consistent .... work it don't disappoint us please !, 587307190353989632 : List coaches - , , , , . Score - . things money can't buy !, 587307221073002498 : Congratulations entering double digit score team tonight, 587307368184033280 : : – helicopter shot, 587307388681633792 : List coaches - , , , , . Score - . things money can't buy !, 587307395010797568 : It's day reds , blues going down hard . First now, 587307682614226944 : ... Well bowled boys ... .., 587307729980674048 : boundary balls everything is going well, 587307815175204864 : Too much do , last he gets out loosing, 587307858804416512 : WICKET ! , caught long-off . down . LIVE SCORE, 587307941570686977 : Disgraceful ., 587307977213788160 : inspired me make . Came back kitchen , down !, 587308129160921088 : are well this . 🔚, 587308196739416064 : Time leave, 587308256080502784 : anything was fixed it was MI's auction . team will suffer lot !, 587308321524158465 : List coaches - , , , , . Score - . things money can't buy !, 587308416365756416 : s'ld have stayed home, 587308623572811776 : 😃😃😃😃u people play jokers lol 😃😃😀😃😂😂😃😂😃😜😜😭😭😀😃 ., 587308926959423488 : - 6words ... same shitty ... worst team ., 587309034065170432 : : Boost Industry …, 587309061785300992 : Tweets | Top Trending Team - :), 587309136120909824 : reduce margin defeat , They need lusty blows likes ..., 587309377930919936 : Whats going on ? Disaster, 587309519816019968 : Hahaha ! It's total treat watch go down way !, 587309689559326720 : new height irritations .. sing . Comedy cricket ., 587309772661194752 : This is hilarious hahaha ! I don't think he knew where ball went ., 587309807951949824 : even cannot save losing .., 587310127776075776 : giving interview getting promotion batting order :p, 587310154284040194 : Supporting , can't not appreciate Johnson's bowling, 587310170381783040 : is having none nonsense . First ball . Not graceful , effective . This is just fun ., 587310205131743232 : . : , runs ,, 587310265714114560 : Only thing I miss now is batsman , entertainment . 👌🏻, 587310266435575809 : . : WICKET ! K ( ) is out , c b ,, 587310401081061376 : Funny how sponsor is condom company, 587310649530650624 : , Awesome, 587310658141556736 : Suchit ! BC , hai tu ! Kidhar ? * runs investigation *, 587310705084235776 : is dangerous team . They have best batsman , best captain , best spinner , best fielder coaching staff ., 587310709677002752 : dance happening stadium . !, 587310795991552000 : brave men rescue, 587310839016718338 : Wow Great batting ....., 587311019610865664 : What was ( ) Rohit's mind , winning toss , that made him choose bowling . Don't think it's good move ., 587311212741836800 : strategy invest heavily support staff seems benefit only ..! Otherwise performance is appalling, 587311247407747072 : " : Its Just Beginning Hopefully He Will Continue Regained Form " CAP * 😝, 587311567122759680 : Did i just see ground ??, 587311843187634176 : #paaji square !, 587312063392808961 : LOL this tweet is BEST ! crowd not noisy enough keep u awake ? :p " : Left stadium . Yawn . ", 587312070963568641 : batting giving commentory !! Thz is, 587312188601331712 : How FISH is doing this ? Someone tell me PLEASE ! 😳 Shocking !, 587312239608143872 : , 587312274550886400 : Dnt forget u have go back 😡, 587312353428942848 : Need start opening now , need open account !, 587312355802918912 : Someone please tell other batsmen bat same pitch is batting now ., 587312375717502976 : Tale sardars now happenning, 587312444923494400 : is Fire . Sixes series ., 587312492621082624 : is playing blinder .. best entertaining innings you'll see . Thumbs up !!, 587312733017649152 : only took words seriously . MI ki there haathon main .., 587312739371974657 : tho sach much kuch hogaaaaa .... ...., 587312835333492736 : Siddhu's commentary is more irritating word irritating !!, 587312919399899136 : needs instead , also instead , it will make team better, 587313097850781697 : wow again, 587313251039350784 : OMG ...., what strike .., its, 587313283683586048 : #Breakdown Analysis showing Batting Skills row, 587313328436817920 : selected next world cup .., 587313331628670976 : ..................... not supporting team just loving, 587313339602178048 : dude you're champ !, 587313379749969921 : is losing I'm not even watching #crying, 587313402235789312 : I bow down you !, 587313423437946880 : is only human world who defines name expressions ., 587313481344495616 : screwed, 587313570502672385 : is jst showing whvhe is favourite pinch hitters !! pinch is really hurting bowlers !, 587313633194979328 : When bhaji is fire everything is park, 587313853412716544 : , has already won . Now can you do same , please !, 587313929908543488 : guess what , gets balls ! Amazing . Never give up ., 587313954914877441 : its fabulous batting .., he is fireeeee ......,, 587314029124657152 : What r u doing bhajjji ...! Sixes fours whole sale .. miracle .. thanxx entertainment . buddy, 587314057713098752 : Balle balle !! Chalo something is better nothing !, 587314058782715904 : hitting ball it's ., 587314072288362496 : Salute First ball now bat Go ..., 587314072657461248 : What amazing batting runs balls ... Freaking Crazy ... Perfect shots, 587314100050329601 : is role now , blasting , got just , gudluck , deep worry, 587314113115635712 : Its, 587314125753069569 : I think should try bat !!! Welldone !, 587314155067015171 : Half Century up just balls ! Fastest player !, 587314199329554432 : runs have come off last ., 587314229763383296 : u Rocksssssssss just Amazing, 587314287883853824 : x = #MI wins !, 587314328736374784 : Now it is suchit whose song now Now crowd will not be disappointed, 587314376299810817 : making real fist it ..., 587314533603143680 : Carnage, 587314590486241282 : Cheerleaders !!! :))), 587314603895300096 : Sure fixed ., 587314625403838464 : , 587314649256845312 : What counter attack , batsmen going it, 587314651366457344 : really need revisit tactics her . They''ve played bowlers all-rounders , both were, 587314657917976577 : Woah man suchit What am i watching ...! Is it sports, 587314700884422656 : Now i am loving it … love u :), 587314720958365696 : Is that ?, 587314755502673920 : x = . Possible , NO ?, 587314783612829696 : ever there was WTF moment .. Then will be thinking ., 587314793951834113 : lets go, 587314798389395456 : Raining sixes ..., 587314828722724864 : looks fixed ..., 587314870397378560 : What effort this lower middle order . Well done , whatever be outcome, 587314892400529408 : I LOVE YOU WHAT INNINGS PAAJI !, 587314897903427584 : is more just player now . hail bhaji .. Is he trying be !?, 587314903058223106 : now says , " go ? ", 587314973560438784 : . : R Dhawan , runs ,, 587315033954070528 : Its strange how underperforms wen is stands how wen is there, 587315036047028224 : Damn what fight put up ., 587315160466886657 : needs runs last ..,, 587315212430245889 : What amazing innings ! Hats !, 587315228527857665 : sixes balls ..... Practically impossible ...., 587315230532702208 : run-rate saving innings, 587315260933083137 : Expecting hearts tweeps 😂😂😜😜, 587315265987158017 : Should have left lot earlier " : Left stadium . Yawn . ", 587315331237986304 : did bring whole feet ... will continue roar, 587315354218733568 : ' , fastest batsman history , beating ', 587315435541925888 : Personally I'm cheering whatever happens , amazing comeback, 587315460254732288 : did u inspire ?, 587315464205946882 : Just sixes then , sixes super ..., 587315502902419458 : What fight it is ?!! doing it ., 587315590362230784 : . needed balls . is strike ., 587315625518882816 : is great ! You are hero ., 587315652056064002 : needed off . end day , is winner, 587315652911742976 : Everyone stadium .. What ?, 587315764996153344 : showing real aukat bowlers which is pretty much same last year's final, 587315805458722818 : balls . extras please ., 587315905878605825 : real bowling prowess coming fore here ., 587315909003325441 : Thats it !!! anything can happen !!!, 587315912023212032 : worked is working, 587315923960246272 : he is not gonaa give up ..., 587315937822408704 : partnership balls . treat watch !, 587315985759211520 : innings here !, 587315994311262208 : is joke, 587316059432030208 : What innings !! Take bow . Feels flood water gushed a so far deserted game :), 587316122954809344 : carnage got me worried while !, 587316156240789504 : helped got digits tournament sixes also ... take bow ..., 587316175891255296 : ! is king ! partnership balls . needed balls . sixes would do it . Crazy hitting !,

Cluster 1 Words: b'overs', b'today', b'want', b'runs', b'total', b'lowest',

Cluster 1 Tweets: 587254413288280064 : Awesome NailBiter Game Today . have learned loose easy games ., 587254587783954433 : Today's second match is . captains ready toss LIVE, 587255345128415232 : bro . innings . U rocked today 👍👍 . followers count ll start increase today ., 587255611273842689 : So good see not playin today . Thank you , . ., 587257311997091841 : is now key player is best team RAW talent . Hence proved today :), 587258042263085056 : can't wait watch delivering today .. want hear commentate first time ...., 587259919641907200 : it is . We want show today ., 587263225156083713 : clocked kmph today Petrol Diesel , ??, 587263282697732096 : I want see today !, 587264779397439488 : We might get today .., 587264830232375297 : its sehwag's day today ... get ready blast tonight ..., 587268061935218690 : he is there " : Why give he was hammered runs overs ? ”, 587268841056546816 : was out first ball last game . Today he is top gear . have raced overs ., 587270009358979072 : was out first ball last game . Today he is top gear . have raced overs . ", 587270835381080065 : , ( overs ) ., 587271164818407425 : here goes what blunder wickets overs, 587272819962068992 : tentative scoreline plus- today , let's check accuracy, 587279328771047424 : Today thrilling match !!!! MIvsKXIP Cmon you can do it ....., 587279555880026113 : , ( overs ) ., 587280657879031808 : would actually improve studio team today, 587285858450964482 : Finally , Sehwag's batting clicked today long time . take it forward here ., 587287095200325634 : finish it off overs, 587287950762778625 : was economical gave jst overs .. Fantastic bowling him, 587289819237056513 : Missing her today TV extra innings, 587293105755258881 : Sharma's previous duck-dismissals were golden ducks ( incl . D ) . today lasted balls ., 587297904030715905 : WICKET ! , ( overs ) ( ) is out ., 587298195564204032 : have looked sorts games . Apart that innings other day Bhajji's spell today , they are going downhill, 587300271241330688 : - ' total first overs . worst ever performance #IPL ( previous : also vs ) ., 587300658186862592 : score today ? 😂 😂 😂 😂 😂 Sorry ... Its only team #IPL I have hatred issues ! More its arrogant fans !, 587302827451674624 : : ( overs ) How comes I kinda expected :(, 587304016847114240 : proud owner second lowest total first overs, 587304030814146560 : What hell is doing ??? overs . 😱, 587304105078566912 : - overs , this is worst performance I've ever seen, 587305222147457024 : man force today ., 587305409267924992 : will start slogging last overs . . . . . . next match ! . ., 587306503779942400 : overs !!!! are KILLING IT !!!!!, 587307039065378816 : Most runs scored last overs chasing #IPL is . They need last today !, 587307703581683712 : is jointly second lowest total end overs #IPL . Lowest : , ,, 587307733852020737 : Most runs scored last overs chasing #IPL is . They need last ..., 587308043718631424 : OUT ! Pollard's ( ) done . Holes long . overs -, 587309059054772224 : Mumbai's should have played today . 😂😂😂, 587309665161084930 : Concedes first overs now concedes first ball final ..., 587310284403974144 : I have , fantasy league today . 😃😃😃😃😃😃😃😃😃😃😃😃😃😁😁😁😁😁😁, 587310901629358081 : Can you believe that ? That was debutant Suchith smashing best bowlers today , ., 587312519678660609 : Next overs last overs they lose runs ..., 587313623233507328 : giving us last minute entertainment , it's just too high total overs ; not, 587313946245238784 : is today !, 587315427140698112 : all people who went sleep first overs match ...... condolences, 587315498980737024 : They made first overs . Crap top order .,

Cluster 2 Words: b'match', b'played', b'test', b'7th', b'luck', b'won',

Cluster 2 Tweets: 587254029643677696 : What match !!! Well played well done too, 587254215170396161 : Well we may have seen best match already, 587254446444253184 : Last ball is always is big deal ! Well played, 587255115284779008 : next match start . hard luck bro . u played nice ., 587255230305153024 : Nerve Wrecking match !! That look Dravid's face winning !!! Priceless !, 587255290447335424 : biting match ! Last boundary made me loose it !, 587255853725523968 : Finish match . Watch toss match . Come back presentation first match . Only, 587256055823929344 : Hotstar Match --, 587256631894786048 : Game 2nd match day, 587256888703590400 : what thriller ! match . Match was undecided last ball hold nerves win match, 587257865322147841 : Good luck Match ..., 587257875526889473 : what game ... won match wickets last ball thriller . This is what #IPL is .., 587257885001961472 : So , minutes Match goes LIVE ! v ! Who are you rooting ?, 587258673971343361 : Well played .. wat inningas u played .. u r true champs, 587258759052787712 : new guy charge whole match, 587258968633774080 : lost match he is not fit team future, 587259240105934848 : Well played lad , great performance ! He is upcoming true gem !!, 587259358641172480 : What match . Full paisa usul . Bst match so far ., 587260635072761856 : Well played keep fire form ...., 587261045862969345 : great performer todays match ... superb played man, 587262933811331072 : congrats hard performance losing wickets soon you guys struggled won match ..!!, 587265965047418880 : Wanted see match wankhede . Only ✌, 587266486844067843 : Expecting show tonight this match ., 587266588975464448 : , 7th Match : ) : ( ) * : ( ) elect bowl, 587270018838048768 : Well played .., 587270046562521088 : is getting flooded ... love time ... celebrating success friends match 💃 check it out ... rubbiya123, 587274440142147585 : abhilasha : looking dapper presenting hotstar match ! …, 587276356154630144 : Well played ; well played ..!! Hard luck ..! Couldn't have scripted much better ., 587277482069327872 : match Commentary can't be called Match .... Want him say favorite Commentary dialogue .... Waiting, 587280042704502784 : , 7th Match : ( Ovs ) , ) , ) , Partnership : ) ., 587280730746589184 : cannot get better . leading , good cricket . yes , just won match 😍, 587281230900625408 : RT : Match Impact has Edge . v .…, 587285227480842241 : Saw what player he has become years then ! Well played !, 587285362008985601 : as always , we can't support team match we love both ' em ! Best luck boys !, 587287693605744642 : have only seen giving claps people stand , post match would like ask ?, 587288342162620416 : , 7th Match : ( Ovs ) , ) , ) , Partnership : ) ., 587288915695894528 : , 7th Match : ( Ovs ) , ) , ) , Partnership : ) ., 587289161322762240 : inning i live batting well played, 587290069964161025 : #ipl .. what awsome match .. hats awsome performace, 587290129993052161 : Very well played man, 587297497715871744 : Am waiting tommarow match ... home ground ... rocks deer ground, 587297794316079104 : actress cheers #ViratKohli's #IPL match ., 587298436296376321 : are playing test match cricket . Frustrating, 587302420251684864 : I like new test match format . Very exciting ., 587303310627045376 : trying save test match ., 587304214029709312 : next match openings batsman, 587304611066683394 : Watching first ever " Test Match " . Well played, 587305002076471296 : Only can save . Hope played !, 587305007420018689 : won't like loose match just hv moment again ' s match ., 587305053813260290 : Ha ! i hope we r watching not test match ! xD, 587305312740216832 : Realtime Match Impact ( . ) v ( . ), 587306931036954627 : Only continuing watch match now is packed is looking awesome sight ., 587307105020813312 : r playing test match, 587308840766476288 : should quickly forget match move, 587309351481647104 : wins match here , return favor lifting him ?, 587310815629312000 : Maybe coaches should play next match ;-), 587311231578439681 : Well batting debut match, 587312907899146240 : makes match even more interesting ., 587313268609417216 : Call me when match is * cries corner *, 587313268680593408 : Is match fixed, 587313406341820416 : Let alone , was bidding opening slot next match ?, 587314030634672128 : Well played well played well played now that's what we call fighting spirit ..!, 587314735588118528 : match is Interstellar , it was boring middle suddenly everyone is :O * Mouth wide open *, 587314968049164290 : Match . : , runs ,, 587315436712255488 : #suchith played well batting also, 587315823234027520 : We have lost Match Also We have Won More Hearts, 587316183898071040 : u played well , u most what we can say mi,

Cluster 3 Words: b'win', b'exciting', b'match', b'gonna', b'best', b'great',

Cluster 3 Tweets: 587254131586424833 : Highly tensed match Win Lose Duminey always Smilling I Love guy <3, 587254154713665536 : What shot man .... ( Y ) We win thanks ' s awesm innings :D, 587254541994725378 : Never Give Up ! Halla Bol ! What win !, 587256013159473152 : one is there change fate , fans are crying win homeground , u missd easy runout, 587256071527370752 : guess gonna win contest ., 587256640593858561 : win toss , opt field first, 587256650026721281 : Best luck MI . Hope you win . Show what you are . Haha ., 587256969284599808 : Oh u never gonna win ... wat chance, 587257276202790913 : Even Match was named . R . So , its obvious win is, 587257333157212161 : costs as much most team put together yet time time again find way win ., 587257611441037313 : What great win !! is new hope, 587258437509124097 : Amazing thriller . win wickets last ball . played well ..., 587258636935696387 : win toss , opt field first, 587260515199496192 : will win ... guess will have support, 587260797451161601 : vs : Win WKTS . hit last ball ., 587262324529954816 : fans consequtive win team i wish take seoson #IPL cup, 587262383342489602 : Great win, 587264486643339264 : What shot !!!! Let score we can win later !!!, 587267870662361089 : What game ! What win 👏👏, 587268129622851584 : I want win match . same time , want score . This is what #IPL is ., 587269156728340482 : steals win , heartbreak, 587280070210818048 : Go Win match taste dust, 587280481047162881 : BabuBeg : RT : tuned we begin exciting contest #win exciting prizes ! …, 587280482401923072 : kp_85 : RT : tuned we begin exciting contest #win exciting prizes ! …, 587280483828006913 : I_amRocky99 : RT : tuned we begin exciting contest #win exciting prizes ! …, 587280886137131009 : team is going win, 587282072269500418 : #IPL pitch looks good batting match being kind bowling attack has i guess is gonna win ., 587287881506406400 : finish overs . Thanks Bailey's * run knock ! need runs win ., 587288996310421504 : I bet will win this, 587289471344754688 : dependable captain ... Hoping win today ... 😍😍, 587290394200793088 : that's what do its wankhede do is win here, 587290422436704256 : Competitive score . Lets see who will win today ..., 587292801378820096 : we definitely need Pollard's magic today !! must win fortress is what we expect . Go !!, 587295888264933376 : Young steers win . ... -, 587296454894419968 : Guys this is battle win it best, 587297502988144640 : will have bat skin win this win . Big advantage, 587298670954975233 : best who cn win games r dugout support , time invest players more support, 587302847970029569 : #IPL difficult it has become impposible win it here !, 587302953800695809 : Please change team captain , chances captain ship good luck many matches win, 587303821702901760 : Other Cricketers : Catches win matches . : Coaches win matches ., 587308148626759680 : are gonna be really relying they wanna win ... least score !, 587308157908586496 : require runs win Watch Live ( ) ), 587308749519335424 : What players are doing . tried win match . shameful heartbreaking performance top players ., 587309119339687936 : have outside chance getting playoffs they drop ... Even they do tat , its impossible win title, 587309180677033985 : Now they're expecting win this them .., 587310068112105472 : we rock .. First win us keep it up best wish next matches ekk hai, 587312918036815872 : Great bowling super batting skipper !! Come on , boys !! We have win, 587313822647607298 : carries this could possibly win !, 587314330946809856 : love u paaji ... u win not we love u ... roll ..., 587314706999681024 : is new :) Go win it :) :D, 587314740667420673 : Doesn't matter win loss thanku rocking, 587315187083902976 : What batting show best , talent coming out . Hearts says will win, 587315460212789249 : runs win balls ., 587316103036080128 : Even will not win , have ensured NRR is not affected badly this match,

Cluster 4 Words: b'ipl', b'm7', b'vs', b'page', b'team', b'season',

Cluster 4 Tweets: 587254186993184768 : huh ... m supporting #IPL teams :p, 587254509430120451 : #ipl I fear sir comes says tat is responsible poor fieldin effort ..., 587255013665189888 : last time I saw topping #IPL points table , I was holding newspaper upside down ., 587255449021349888 : better last seasons . have cross line . Team watch out #IPL, 587255506688815104 : consecutive loss #IPL . What pity ! Back back heartbreaks team . They played well outsmarted end, 587255825816649728 : way is helping bring noise pollution down , we are forced watch #IPL mute, 587255866476269568 : indoors , watch #IPL , save ' shooosh ' ..., 587256252146659328 : are cursed they need bury franchise start #ipl, 587257214928363520 : I am enjoying #ipl ..., 587257387188293633 : Most consecutive losses #IPL - - teams - :P, 587258205295738880 : it's gonna be vs times #ipl season . will it's victory 👍, 587259940898603008 : Hope this #IPL brings new Players international team other only !! have good mix, 587260560393158656 : nothing lucky #IPL DD's didn't even try save boundary all is fixed playing emotions, 587262321615069184 : Desperately wanna watch #IPL , always it has be > Anything else lmaoo, 587262886105321472 : #IPL : VICTORY, 587263755517497344 : sm r hero #ipl . sm fr #india ... ex anytime he wil b back, 587265199096365057 : makes whole #IPL experience so much better 👏😍, 587265713884147715 : Wish see commentators #IPL once !, 587266304404369410 : CRICKET - Live #IPL : HERE : Bookmark, 587267272407781376 : Overs IPL M7 , -vs- Page, 587267679263666176 : commentators mentioned " Buying " auctions ! He was trade ! Surprising how shitty standards comm are #IPL, 587268320182738945 : First time IPL I m intrested seeing batting, 587269613039157248 : #IPL I am still awe'ed, 587269955936108544 : was fast tracked success #IPL , will get same opportunity ?, 587270624252264449 : watching #IPL cheering, 587270982626250753 : #ipl rockss :-) me supprting ...., 587271152063524867 : Switched television watch #IPL just get glimpse, 587271272393940992 : fanatics keep calm we r kingdom #ipl history ♚, 587273063231660033 : #IPL hashtags are top trends . lol . They may organise Turkey . 😀, 587273189773996032 : Overs IPL M7 , -vs- Page, 587275849814175744 : #IPL : . Live update ., 587276923060924417 : stopped watching #ipl very long time !, 587277192855478272 : IPL M7 , -vs- Page, 587277553519300608 : Sad see sitting out due overseas restriction . Arguably most successful elegant player ever play #IPL ., 587278113995943937 : #IPL, 587279440998223874 : Not connoisseur cheerleading ( cricket ) , untrained eye #IPL cheerleaders seem particularly casual ., 587279482827866112 : you think life is irritating then listen paji commentary you'll see life intresting ipl, 587280226939355136 : #ipl go captain go . balle balle captain bailey, 587280309479063554 : parallel universe playing good #ipl, 587280502169579521 : #ipl MisSing, 587282383751090176 : Oh I don't need explore #IPL I already know what is gonna happen ., 587282498540982272 : I said start yesterday , when we were , #IPL would pass end weekend . It's moment, 587285116797394944 : Sub-30 ball centuries seem be becoming norm #IPL . Classy knock captain, 587285648962232321 : How many ppl think release films are hammered successful #ipl season , ur choose #ipl ? 🎾, 587286050135023616 : team are you supporting this #IPL ???, 587286070552735746 : ♓Join , CODE : #IPL q, 587287408065916928 : #IPL tremendous so far ., 587287953770065920 : We want perform well #ipl make come back team, 587288308780118016 : Anyone who enjoys #IPL ' commentary , ' expert opinion ' hosting deserves !, 587289448905216000 : did great job # i think last boundary was gift given returning form #ipl last he know job, 587291884789207041 : inswinger will be interesting #IPL, 587295100847271937 : Im watchng #IPL matchz nowdayz hr team only ... ;-), 587296520053006336 : Wow yaar amazing fast bowling #IPL, 587298692975169536 : watching #IPL takes wicket maiden 1st , help us summer, 587298931370917888 : IPL M7 , -vs- Page, 587299049612517376 : #IPL .. perfect combo ! Wow !, 587299118017605634 : ducks #IPL . those - first last innings them !!, 587299221427978241 : test series beginning tomorrow . different team most are playing #IPL . country ., 587301454362218496 : what are ? RT : are year's #IPL . #shambles, 587301499220271104 : Is this same who won games last #IPL, 587301742452154368 : Has someone done study why #IPL is still hit ? 8th season there's still so much hype . Even went down year they say ., 587302327087865856 : go home play worst performance #ipl history, 587302344569683968 : Australian plays good plays good doesn't plays good #IPL, 587302496684548096 : It's fun see expensive teams lose #IPL, 587304011495112704 : #Ipl shows there is so much talent obsession is ridiculous, 587305272072212480 : It's far better watch #PM today's #IPL match, 587305511260946432 : is coming #ipl excited see you missing u last years, 587307461901549569 : #IPL is - - Glamour - Brain eating commentary -, 587310910261202946 : Now it looks #IPL game .. Huh !! Great display batting bu Suchit own .. !, 587310985800716288 : season will remain last spot #IPL ., 587311495878279169 : Australian bowlers sledging Indian batsmen downunder tour is not accepted , however it is accepted #IPL, 587313014463930368 : Also , #IPL is, 587315068846678017 : Go home #IPL , you're drunk ., 587315218876731392 : Last time played this IPL same opposition ,, whos today ???, 587315474225991681 : Worst umpiring I ever seen #ipl season, 587315991471792129 : Good see bhaji show ... it's late #IPL,



